4	8
time	prcEDUposBRDUneg	prcEDUposBRDUpos	prcEDUnegBRDUpos	prcEDUnegBRDUneg	PostInG1	MiddleInG1	UnstInS	PostInS
2	0.70	3.81	1.44	94.05	90.23	1.04	0.21	5.50
3	0.98	3.30	1.66	94.06	97.94	12.45	0.47	1.32
5	1.28	4.23	1.57	92.92	98.16	47.36	1.69	1.70
7	1.33	3.34	1.43	93.90	92.48	73.18	2.45	7.54
