6	11
time	prcEDUposBRDUneg	prcEDUposBRDUpos	prcEDUnegBRDUpos	prcEDUnegBRDUneg	PostInG1	MiddleInG1	UnstInS	PostInS	percentG0G1	percentS	percentG2M
2	0.70	3.81	1.44	94.05	90.23	1.04	0.21	5.50	93.53	6.23	0.44
3	0.98	3.30	1.66	94.06	97.94	12.45	0.47	1.32	93.53	6.23	0.44
5	1.28	4.23	1.57	92.92	98.16	47.36	1.69	1.70	93.53	6.23	0.44
7	1.33	3.34	1.43	93.90	92.48	73.18	2.45	7.54	93.53	6.23	0.44
17	1.58	6.92	2.10	89.42	nan	88.17	10.82	nan	93.53	6.23	0.44
21	1.45	8.43	1.80	88.32	nan	94.42	7.81	nan	93.53	6.23	0.44
