6	11
time	prcEDUposBRDUneg	prcEDUposBRDUpos	prcEDUnegBRDUpos	prcEDUnegBRDUneg	PostInG1	MiddleInG1	UnstInS	PostInS	percentG0G1	percentS	percentG2M
2	4.17	28.20	5.69	61.90	73.83	0.83	1.13	7.10	65.78	30.26	3.18
3	5.86	26.94	6.48	60.70	93.14	18.46	9.98	5.90	65.78	30.26	3.18
5	5.01	25.30	6.31	63.36	73.52	54.94	18.54	24.43	65.78	30.26	3.18
7	6.49	26.58	4.92	62.00	39.25	84.33	23.91	59.05	65.78	30.26	3.18
17	10.12	21.98	11.88	56.02	47.32	61.05	40.88	49.77	65.78	30.26	3.18
21	5.11	19.78	8.52	66.60	41.38	66.92	23.07	54.45	65.78	30.26	3.18
