6	11
time	prcEDUposBRDUneg	prcEDUposBRDUpos	prcEDUnegBRDUpos	prcEDUnegBRDUneg	PostInG1	MiddleInG1	UnstInS	PostInS	percentG0G1	percentS	percentG2M
2	0.97	3.74	1.13	94.14	68.82	0.69	0.64	8.57	92.38	6.96	0.27
3	1.78	4.32	1.23	92.66	96.16	10.95	0.49	2.17	92.38	6.96	0.27
5	2.24	4.90	2.22	90.64	96.30	47.70	0.86	3.33	92.38	6.96	0.27
7	3.10	6.42	2.47	88.02	70.68	74.80	1.83	27.86	92.38	6.96	0.27
17	4.59	14.23	6.94	74.27	70.20	79.15	4.37	27.50	92.38	6.96	0.27
21	4.19	13.27	5.44	77.10	75.45	88.25	4.02	23.03	92.38	6.96	0.27
