28	10
101.53428	10000	11.7796	7.17139	0.299982	0	0.9086	0	0	0	0.0136	1.5	259.067	0.01	0	1	0.75	0	0.75	200	0.1	4	0.00185	1	1	1	20	1	1
201.52702	10000	12.1518	6.75729	0.341815	0	1.41304	0	0	0	0.0136	1.5	256.872	0.01	0	1	0.75	0	0.75	200	0.1	4	0.00185	1	1	1	20	1	1
301.49288	10000	12.6721	6.94302	0.345768	0	0.471415	0	0	0	0.0136	1.5	252.436	0.01	0	1	0.75	0	0.75	200	0.1	4	0.00185	1	1	1	20	1	1
401.43179	10000	13.0425	7.40681	0.355061	0	0.268585	0	0	0	0.0136	1.5	243.552	0.01	0	1	0.75	0	0.75	200	0.1	4	0.00185	1	1	1	20	1	1
501.47033	10000	11.531	7.11881	0.327321	0	0.234851	0	0	0	0.0136	1.5	266.604	0.01	0	1	0.75	0	0.75	200	0.1	4	0.00185	1	1	1	20	1	1
601.40956	10000	12.2043	6.8373	0.325682	0	0.335637	0	0	0	0.0136	1.5	260.745	0.01	0	1	0.75	0	0.75	200	0.1	4	0.00185	1	1	1	20	1	1
701.36787	10000	11.3044	7.19424	0.350009	0	0.440991	0	0	0	0.0136	1.5	267.059	0.01	0	1	0.75	0	0.75	200	0.1	4	0.00185	1	1	1	20	1	1
801.51884	10000	11.0966	7.48724	0.322428	0	0.168637	0	0	0	0.0136	1.5	268.016	0.01	0	1	0.75	0	0.75	200	0.1	4	0.00185	1	1	1	20	1	1
901.43966	10000	11.4715	6.8214	0.295014	0	0.610735	0	0	0	0.0136	1.5	269.662	0.01	0	1	0.75	0	0.75	200	0.1	4	0.00185	1	1	1	20	1	1
1001.43085	10000	11.6487	6.99524	0.299596	0	0.164824	0	0	0	0.0136	1.5	267.528	0.01	0	1	0.75	0	0.75	200	0.1	4	0.00185	1	1	1	20	1	1
