28	9
103.82056	10000	8.76406	7.81334	0.20321	0	0.350264	0	0	0	0.865035	1.5	299.691	0.01	0	1	0.75	0	0.75	200	0.1	4	0.00185	1	1	1	20	1	1
204.04091	10000	12.4855	8.44218	0.214332	0	0.583484	0	0	0	0.865851	1.5	238.17	0.01	0	1	0.75	0	0.75	200	0.1	4	0.00185	1	1	1	20	1	1
303.99499	10000	7.39293	7.69344	0.215768	0	0.133816	0	0	0	0.866975	1.5	330.04	0.01	0	1	0.75	0	0.75	200	0.1	4	0.00185	1	1	1	20	1	1
404.24223	10000	13.4465	7.98037	0.24474	0	0.397404	0	0	0	0.839499	1.5	233.423	0.01	0	1	0.75	0	0.75	200	0.1	4	0.00185	1	1	1	20	1	1
504.07496	10000	12.1018	7.43698	0.207903	0	1.02468	0	0	0	0.840488	1.5	252.238	0.01	0	1	0.75	0	0.75	200	0.1	4	0.00185	1	1	1	20	1	1
603.94776	10000	22.6682	7.51711	0.262724	0	0.165107	0	0	0	0.775833	1.5	168.537	0.01	0	1	0.75	0	0.75	200	0.1	4	0.00185	1	1	1	20	1	1
704.14989	10000	20.7444	8.02578	0.30982	0	0.646067	0	0	0	0.781122	1.5	174.925	0.01	0	1	0.75	0	0.75	200	0.1	4	0.00185	1	1	1	20	1	1
804.18072	10000	15.3531	8.259	0.238139	0	0.373346	0	0	0	0.844344	1.5	212.801	0.01	0	1	0.75	0	0.75	200	0.1	4	0.00185	1	1	1	20	1	1
903.92702	10000	9.07126	7.55249	0.214125	0	0.241883	0	0	0	0.857889	1.5	299.583	0.01	0	1	0.75	0	0.75	200	0.1	4	0.00185	1	1	1	20	1	1
