28	10
905.19466	10000	10.3675	13.4048	0.625954	1	6.12605	0.5	0	0	0.854138	2.5	75.3937	0.01	0	1	0.75	0	0.75	200	0.1	4	0.0001	1	1	1	20	1	1
1005.44667	10000	14.0019	14.799	0.633521	1	7.88343	0.5	0	0	0.853539	2.5	62.9829	0.01	0	1	0.75	0	0.75	200	0.1	4	0.0001	1	1	1	20	1	1
104.93778	10000	9.72876	13.499	0.38443	1	6.76842	0.5	0	0	0.852428	2.5	77.5733	0.01	0	1	0.75	0	0.75	200	0.1	4	0.0001	1	1	1	20	1	1
205.59765	10000	18.8353	14.985	0.303536	1	9.58312	0.5	0	0	0.790033	2.5	54.981	0.01	0	1	0.75	0	0.75	200	0.1	4	0.0001	1	1	1	20	1	1
305.10259	10000	14.9707	14.0043	0.483446	1	3.07544	0.5	0	0	0.82532	2.5	64.3972	0.01	0	1	0.75	0	0.75	200	0.1	4	0.0001	1	1	1	20	1	1
405.45675	10000	5.90051	12.469	0.539317	1	2.27682	0.5	0	0	0.877668	2.5	98.7807	0.01	0	1	0.75	0	0.75	200	0.1	4	0.0001	1	1	1	20	1	1
505.44791	10000	13.4019	14.5958	0.470047	1	7.13805	0.5	0	0	0.846236	2.5	65.0285	0.01	0	1	0.75	0	0.75	200	0.1	4	0.0001	1	1	1	20	1	1
605.15317	10000	12.6984	13.7864	0.350807	1	4.57643	0.5	0	0	0.829776	2.5	69.4503	0.01	0	1	0.75	0	0.75	200	0.1	4	0.0001	1	1	1	20	1	1
705.08664	10000	18.1999	13.3823	0.309556	1	7.34232	0.5	0	0	0.785566	2.5	58.8047	0.01	0	1	0.75	0	0.75	200	0.1	4	0.0001	1	1	1	20	1	1
805.62676	10000	11.4024	15.6882	0.331897	1	9.35003	0.5	0	0	0.836744	2.5	67.0128	0.01	0	1	0.75	0	0.75	200	0.1	4	0.0001	1	1	1	20	1	1
