28	10
701.02192	10000	22.4826	7.79264	0.294616	0	4.09001	0	0	0	0.639525	2.94222	56.7274	0.01	0	1	0.75	0	0.75	200	0.1	4	0.00417	1	1	1	20	1	1
800.914716	10000	18.9056	7.82256	0.26834	0	5.28212	0	0	0	0.644273	5.15384	15.0227	0.01	0	1	0.75	0	0.75	200	0.1	4	0.00417	1	1	1	20	1	1
901.18987	10000	12.7196	8.66103	0.320541	0	4.41	0	0	0	0.749491	3.20414	60.004	0.01	0	1	0.75	0	0.75	200	0.1	4	0.00417	1	1	1	20	1	1
1000.977913	10000	10.8054	7.62714	0.274579	0	3.71604	0	0	0	0.768002	4.7101	24.801	0.01	0	1	0.75	0	0.75	200	0.1	4	0.00417	1	1	1	20	1	1
100.978383	10000	19.4807	7.27726	0.27487	0	5.36876	0	0	0	0.618435	4.0711	29.6126	0.01	0	1	0.75	0	0.75	200	0.1	4	0.00417	1	1	1	20	1	1
201.0063	10000	13.2002	7.97468	0.250134	0	9.56372	0	0	0	0.694877	3.5299	49.5739	0.01	0	1	0.75	0	0.75	200	0.1	4	0.00417	1	1	1	20	1	1
301.10916	10000	12.5391	7.37941	0.291097	0	1.2078	0	0	0	0.729068	2.61743	98.6855	0.01	0	1	0.75	0	0.75	200	0.1	4	0.00417	1	1	1	20	1	1
401.03532	10000	11.2157	6.25526	0.241126	0	3.86507	0	0	0	0.72368	2.28229	141.773	0.01	0	1	0.75	0	0.75	200	0.1	4	0.00417	1	1	1	20	1	1
501.00609	10000	21.4683	6.66247	0.215683	0	4.17564	0	0	0	0.557848	3.15891	51.0764	0.01	0	1	0.75	0	0.75	200	0.1	4	0.00417	1	1	1	20	1	1
601.04672	10000	17.877	6.67618	0.288898	0	2.37368	0	0	0	0.640164	2.68722	78.3356	0.01	0	1	0.75	0	0.75	200	0.1	4	0.00417	1	1	1	20	1	1
