4	11
time	prcEDUposBRDUneg	prcEDUposBRDUpos	prcEDUnegBRDUpos	prcEDUnegBRDUneg	percentG0	percentG0G1	percentS	percentG2M	percentM	PostInG1	MiddleInG1
2	0.33	0.61	0.12	0.92	3.31	2.43	0.69	0.09	0.22	nan	nan
3	0.33	0.33	0.16	0.48	3.31	2.43	0.69	0.09	0.22	nan	nan
5	0.29	0.30	0.13	0.42	3.31	2.43	0.69	0.09	0.22	nan	nan
7	0.53	0.33	0.35	0.69	3.31	2.43	0.69	0.09	0.22	0.00	12.67
