4	9
time	prcEDUposBRDUneg	prcEDUposBRDUpos	prcEDUnegBRDUpos	prcEDUnegBRDUneg	percentG0	percentG0G1	percentS	percentG2M	percentM
2	1.68	3.03	0.16	3.38	0.45	2.56	0.85	0.21	0.53
3	29.09	0.26	0.47	28.93	0.45	2.56	0.85	0.21	0.53
5	2.77	0.30	0.23	2.94	0.45	2.56	0.85	0.21	0.53
7	19.71	0.58	0.34	20.08	0.45	2.56	0.85	0.21	0.53
