6	15
time	prcEDUposBRDUneg	prcEDUposBRDUpos	prcEDUnegBRDUpos	prcEDUnegBRDUneg	PostInG1	MiddleInG1	percentG0	percentG0G1	percentS	percentG2M	percentM	AvgDNAMiddle	AvgDNAPre	UnstInS	PostInS
2	2.30	29.05	4.22	64.43	94.87	0.50	1.87	69.94	27.08	1.84	2.55	0.56	0.12	0.14	0.72
3	2.32	32.24	4.06	61.38	96.83	15.74	1.87	69.94	27.08	1.84	2.55	0.65	0.16	1.49	0.00
5	4.39	36.92	4.25	54.44	100.00	39.22	1.87	69.94	27.08	1.84	2.55	0.76	0.41	8.54	0.00
7	3.62	27.30	7.02	62.05	100.00	64.13	1.87	69.94	27.08	1.84	2.55	0.91	0.75	16.00	0.00
17.00	4.17	26.48	9.12	60.22	nan	nan	nan	nan	nan	nan	nan	nan	nan	nan	nan
21.00	3.76	25.87	7.01	63.37	nan	nan	nan	nan	nan	nan	nan	nan	nan	nan	nan
