4	11
time	prcEDUposBRDUneg	prcEDUposBRDUpos	prcEDUnegBRDUpos	prcEDUnegBRDUneg	percentG0	percentG0G1	percentS	percentG2M	percentM	PostInG1	MiddleInG1
2	2.30	29.05	4.22	64.43	1.87	69.94	27.08	1.84	2.55	94.87	0.50
3	2.32	32.24	4.06	61.38	1.87	69.94	27.08	1.84	2.55	96.83	15.74
5	4.39	36.92	4.25	54.44	1.87	69.94	27.08	1.84	2.55	100.00	39.22
7	3.62	27.30	7.02	62.05	1.87	69.94	27.08	1.84	2.55	100.00	64.13
