6	15
time	prcEDUposBRDUneg	prcEDUposBRDUpos	prcEDUnegBRDUpos	prcEDUnegBRDUneg	PostInG1	MiddleInG1	percentG0	percentG0G1	percentS	percentG2M	percentM	AvgDNAMiddle	AvgDNAPre	UnstInS	PostInS
2	1.62	8.61	1.34	10.19	13.33	0.59	0.85	8.98	8.61	1.70	0.84	0.015	0.021	0.18	8.00
3	2.87	6.48	2.65	10.45	8.42	5.34	0.85	8.98	8.61	1.70	0.84	0.067	0.038	9.00	6.02
5	3.92	9.95	3.08	10.54	22.72	10.15	0.85	8.98	8.61	1.70	0.84	0.066	0.140	22.73	22.73
7	3.92	6.28	4.26	8.19	14.95	4.92	0.85	8.98	8.61	1.70	0.84	nan	nan	5.73	13.36
17	0.62	4.17	3.72	3.34	7.05	8.00	0.85	8.98	8.61	1.70	0.84	nan	nan	9.55	6.54
21	1.69	7.41	1.67	8.58	8.76	6.62	0.85	8.98	8.61	1.70	0.84	nan	nan	11.69	9.28
