4	15
time	prcEDUposBRDUneg	prcEDUposBRDUpos	prcEDUnegBRDUpos	prcEDUnegBRDUneg	PostInG1	MiddleInG1	percentG0	percentG0G1	percentS	percentG2M	percentM	AvgDNAMiddle	AvgDNAPre	UnstInS	PostInS
2	5.25	44.97	6.51	43.27	92.13	1.57	0.55	34.98	58.47	5.20	2.38	0.61	0.07	0.74	2.29
3	7.60	43.06	7.59	41.74	95.42	13.32	0.55	34.98	58.47	5.20	2.38	0.67	0.25	32.27	3.97
5	8.88	38.63	8.53	43.98	64.70	48.28	0.55	34.98	58.47	5.20	2.38	0.88	0.66	53.75	33.23
7	11.32	42.20	8.11	38.44	28.90	73.64	0.55	34.98	58.47	5.20	2.38	nan	nan	54.73	65.70
