6	15
time	prcEDUposBRDUneg	prcEDUposBRDUpos	prcEDUnegBRDUpos	prcEDUnegBRDUneg	PostInG1	MiddleInG1	percentG0	percentG0G1	percentS	percentG2M	percentM	AvgDNAMiddle	AvgDNAPre	UnstInS	PostInS
2	1.99	4.32	2.01	5.86	30.41	0.29	1.87	4.77	5.16	2.12	0.45	0.038	0.009	0.29	5.42
3	0.80	3.58	2.22	5.94	4.02	5.64	1.87	4.77	5.16	2.12	0.45	0.065	0.029	3.84	4.47
5	0.83	4.44	2.18	5.50	24.46	14.05	1.87	4.77	5.16	2.12	0.45	0.073	0.133	7.69	25.24
7	0.90	3.26	2.04	3.76	6.08	2.02	1.87	4.77	5.16	2.12	0.45	nan	nan	15.26	6.60
17.00	4.42	5.60	4.78	8.01	nan	nan	nan	nan	nan	nan	nan	nan	nan	nan	nan
21.00	1.55	3.23	5.65	2.98	nan	nan	nan	nan	nan	nan	nan	nan	nan	nan	nan
