4	12
time	PreInG1	MiddleInG1	PostInG1	PreInS	MiddleInS	PostInS	PreInG2M	MiddleInG2M	PostInG2M	PctEarly	PctMiddle	PctPost
3	12.15	0.64	65.3	90.72	77.92	8.355	1.17	21.6	26	0.835	6.9	1.785
4	5.13	10.59	77.4	91.57	44.51	18.49	3.29	44.9	4.135	1.03	6.955	2.83
6	16.12	46.4	80.7	70.81	31.75	17.6	13.07	21.85	1.7	0.93	12.05	3.505
8	9.31	71.05	63.6	23.96	12.815	27.5	66.73	16.135	8.9	0.8	11.15	2.735
