4	12
time	PreInG1	MiddleInG1	PostInG1	PreInS	MiddleInS	PostInS	PreInG2M	MiddleInG2M	PostInG2M	PctEarly	PctMiddle	PctPost
3	4.143645738	0	12.30365799	1.612203461	0.791959595	2.750645379	0.014142136	0.565685425	7.919595949	0.035355339	1.400071427	0.403050865
4	0.975807358	0.777817459	0.282842712	0.975807358	6.151828996	0.551543289	0.014142136	5.374011537	0.304055916	0.240416306	1.477853173	0.608111832
6	17.93222797	2.828427125	1.555634919	28.72267745	1.909188309	0.90509668	10.79044948	0.919238816	0.650538239	0.028284271	1.202081528	0.403050865
8	0.579827561	6.01040764	2.2627417	21.8354574	5.777062402	0.989949494	22.41528496	0.233345238	3.252691193	0.240416306	1.343502884	0.007071068
