4	15
time	prcEDUposBRDUneg	prcEDUposBRDUpos	prcEDUnegBRDUpos	prcEDUnegBRDUneg	PostInG1	MiddleInG1	percentG0	percentG0G1	percentS	percentG2M	percentM	AvgDNAMiddle	AvgDNAPre	UnstInS	PostInS
2	0.44	3.71	0.34	4.24	22.09	2.89	2.59	2.24	2.61	0.33	3.22	0.030	0.208	0.15	5.04
3	0.59	3.06	0.55	2.39	38.95	0.69	2.59	2.24	2.61	0.33	3.22	0.036	0.101	0.36	5.59
5	0.40	1.90	0.10	1.48	6.88	4.53	2.59	2.24	2.61	0.33	3.22	0.044	0.127	0.19	1.35
7	0.26	1.41	0.78	2.04	16.70	7.37	2.59	2.24	2.61	0.33	3.22	#DIV/0!	0.046	0.57	5.19
