4	11
time	prcEDUposBRDUneg	prcEDUposBRDUpos	prcEDUnegBRDUpos	prcEDUnegBRDUneg	percentG0	percentG0G1	percentS	percentG2M	percentM	PostInG1	MiddleInG1
2	1.16	11.16	0.76	86.90	10.11	91.56	7.01	0.26	15.90	36.08	2.86
3	1.03	5.90	0.79	92.28	10.11	91.56	7.01	0.26	15.90	47.40	0.73
5	0.90	5.38	0.78	92.93	10.11	91.56	7.01	0.26	15.90	91.18	9.52
7	0.77	4.21	1.46	93.56	10.11	91.56	7.01	0.26	15.90	88.05	30.98
