4	11
time	prcEDUposBRDUneg	prcEDUposBRDUpos	prcEDUnegBRDUpos	prcEDUnegBRDUneg	percentG0	percentG0G1	percentS	percentG2M	percentM	PostInG1	MiddleInG1
2	0.97	3.74	1.13	94.14	6.51	96.26	2.78	0.23	2.98	68.82	0.69
3	1.78	4.32	1.23	92.66	6.51	96.26	2.78	0.23	2.98	96.16	10.95
5	2.24	4.90	2.22	90.64	6.51	96.26	2.78	0.23	2.98	96.30	47.70
7	3.10	6.42	2.47	88.02	6.51	96.26	2.78	0.23	2.98	70.68	74.80
