4	13
time	prcEDUposBRDUneg	prcEDUposBRDUpos	prcEDUnegBRDUpos	prcEDUnegBRDUneg	PostInG1	MiddleInG1	percentG0	percentG0G1	percentS	percentG2M	percentM	AvgDNAMiddle	AvgDNAPre
2	0.10	4.90	0.49	4.84	4.94	1.09	0.52	2.25	2.05	0.26	0.49	0.036	0.050
3	0.46	4.37	0.37	4.01	42.33	5.76	0.52	2.25	2.05	0.26	0.49	0.066	0.079
5	0.46	3.42	1.02	4.31	3.14	22.27	0.52	2.25	2.05	0.26	0.49	0.084	0.131
7	0.35	3.48	1.02	4.24	9.45	9.81	0.52	2.25	2.05	0.26	0.49	0.033	0.063
