4	13
time	prcEDUposBRDUneg	prcEDUposBRDUpos	prcEDUnegBRDUpos	prcEDUnegBRDUneg	PostInG1	MiddleInG1	percentG0	percentG0G1	percentS	percentG2M	percentM	AvgDNAMiddle	AvgDNAPre
2	1.14	4.76	1.37	92.76	82.80	1.17	5.70	96.40	4.13	0.20	3.82	0.64	0.08
3	1.96	5.20	1.73	91.12	75.64	7.31	5.70	96.40	4.13	0.20	3.82	0.73	0.20
5	2.32	4.05	2.01	91.63	94.45	43.70	5.70	96.40	4.13	0.20	3.82	0.78	0.43
7	3.23	6.39	2.74	87.64	65.53	77.00	5.70	96.40	4.13	0.20	3.82	0.94	0.71
