4	7
time	prcEDUposBRDUpos	prcEDUnegBRDUpos	prcEDUposBRDUneg	percentG0G1	percentS	percentG2M	MiddleInG1
2	64.85	3.995	3.795	42.8	51.1	6.101428571	4.84
3	51.15	8.2075	7.19	42.8	51.1	6.101428571	8.8175
5	49.425	8.7275	7.2675	42.8	51.1	6.101428571	31.95
7	43.35	8.0125	6.4975	42.8	51.1	6.101428571	52.6
