4	7
time	prcEDUposBRDUpos	prcEDUnegBRDUpos	prcEDUposBRDUneg	percentG0G1	percentS	percentG2M	MiddleInG1
2	4.073798391	1.566801413	0.686506858	5.520009058	5.941825617	0.828823262	2.447262076
3	3.439476704	0.713792687	1.696277788	5.520009058	5.941825617	0.828823262	1.349073756
5	1.126572974	1.471425046	0.453826325	5.520009058	5.941825617	0.828823262	10.12324059
7	3.963479111	0.961907826	0.571547607	5.520009058	5.941825617	0.828823262	15.92825058
