4	7
time	prcEDUposBRDUpos	prcEDUnegBRDUpos	prcEDUposBRDUneg	percentG0G1	percentS	percentG2M	MiddleInG1
2	25.15	11.08	5.035	49.01428571	48.13571429	2.752142857	10.445
3	25.1	14.025	5.2175	49.01428571	48.13571429	2.752142857	13.55
5	26.25	15.175	4.19	49.01428571	48.13571429	2.752142857	46.4
7	30.725	9.295	4.88	49.01428571	48.13571429	2.752142857	70.05
