4	7
time	prcEDUposBRDUpos	prcEDUnegBRDUpos	prcEDUposBRDUneg	percentG0G1	percentS	percentG2M	MiddleInG1
2	1.698006184	0.440936503	0.472749053	2.344923595	2.220999681	0.157956534	3.146758915
3	1.086105428	0.450656928	0.950087715	2.344923595	2.220999681	0.157956534	2.04843843
5	2.113549542	0.839563379	0.380438344	2.344923595	2.220999681	0.157956534	13.46164304
7	1.551845675	0.426409428	0.232880513	2.344923595	2.220999681	0.157956534	13.81183068
