4	5
time	prcEDUposBRDUpos	percentG0G1	percentS	percentG2M	MiddleInG1
2	35.46666667	35.39533333	57.07333333	7.69	4.15
3	43.7	35.39533333	57.07333333	7.69	2.3925
5	78.325	35.39533333	57.07333333	7.69	9.3
7	63.775	35.39533333	57.07333333	7.69	20.175
