6	13
time	prcEDUposBRDUneg	prcEDUposBRDUpos	prcEDUnegBRDUpos	prcEDUnegBRDUneg	PostInG1	MiddleInG1	percentG0G1	percentS	percentG2M	AvgDNAMiddle	AvgDNAPre	UnstInS	PostInS
2	1.26	8.70	1.09	9.70	6.54	0.60	8.35	8.59	4.66	0.03	0.06	0.24	1.43
3	1.28	5.33	0.89	4.64	5.48	3.90	8.35	8.59	4.66	0.08	0.06	1.92	0.00
5	0.77	8.59	1.69	9.36	0.00	11.09	8.35	8.59	4.66	0.06	0.07	3.44	0.00
7	0.56	4.49	3.57	7.51	0.00	11.11	8.35	8.59	4.66	0.06	0.04	0.14	0.00
17	1.05	5.62	2.30	6.64	nan	7.27	8.35	8.59	4.66	nan	nan	24.16	nan
21	1.05	4.44	1.77	6.30	nan	8.05	8.35	8.59	4.66	nan	nan	8.79	nan
