6	13
time	prcEDUposBRDUneg	prcEDUposBRDUpos	prcEDUnegBRDUpos	prcEDUnegBRDUneg	PostInG1	MiddleInG1	percentG0G1	percentS	percentG2M	AvgDNAMiddle	AvgDNAPre	UnstInS	PostInS
2	0.70	3.81	1.44	94.05	90.23	1.04	93.53	6.23	0.44	0.52	0.03	0.21	5.50
3	0.98	3.30	1.66	94.06	97.94	12.45	93.53	6.23	0.44	0.59	0.09	0.47	1.32
5	1.28	4.23	1.57	92.92	98.16	47.36	93.53	6.23	0.44	0.76	0.39	1.69	1.70
7	1.33	3.34	1.43	93.90	92.48	73.18	93.53	6.23	0.44	0.89	0.62	2.45	7.54
17	1.58	6.92	2.10	89.42	nan	88.17	93.53	6.23	0.44	nan	nan	10.82	nan
21	1.45	8.43	1.80	88.32	nan	94.42	93.53	6.23	0.44	nan	nan	7.81	nan
