6	13
time	prcEDUposBRDUneg	prcEDUposBRDUpos	prcEDUnegBRDUpos	prcEDUnegBRDUneg	PostInG1	MiddleInG1	percentG0G1	percentS	percentG2M	AvgDNAMiddle	AvgDNAPre	UnstInS	PostInS
2	0.47	1.51	0.44	2.00	8.95	0.66	3.18	2.93	0.42	0.06	0.02	0.30	8.02
3	0.41	0.71	0.54	0.54	2.86	4.52	3.18	2.93	0.42	0.08	0.04	0.25	1.85
5	0.60	1.05	0.16	1.32	2.62	12.87	3.18	2.93	0.42	0.09	0.08	0.58	2.50
7	0.43	0.68	0.75	0.81	6.29	11.78	3.18	2.93	0.42	0.02	0.03	1.34	6.29
17	0.37	3.29	0.87	4.03	nan	6.06	3.18	2.93	0.42	nan	nan	2.39	nan
21	0.46	2.96	0.65	3.44	nan	2.65	3.18	2.93	0.42	nan	nan	1.43	nan
