4	9
time	prcEDUposBRDUneg	prcEDUposBRDUpos	prcEDUnegBRDUpos	prcEDUnegBRDUneg	percentG0G1	percentS	percentG2M	PostInG1	MiddleInG1
2	0.34	0.27	0.19	0.53	2.06	0.82	0.13	nan	nan
3	0.52	1.62	0.03	1.84	2.06	0.82	0.13	nan	nan
5	0.41	0.15	0.23	0.28	2.06	0.82	0.13	nan	nan
7	0.44	0.36	0.08	0.29	2.06	0.82	0.13	0.65	5.76
