4	11
time	prcEDUposBRDUneg	prcEDUposBRDUpos	prcEDUnegBRDUpos	prcEDUnegBRDUneg	PostInG1	MiddleInG1	UnstInS	PostInS	percentG0G1	percentS	percentG2M
2	2.30	29.05	4.22	64.43	94.87	0.50	0.14	0.72	67.18	28.06	4.31
3	2.32	32.24	4.06	61.38	96.83	15.74	1.49	0.00	67.18	28.06	4.31
5	4.39	36.92	4.25	54.44	100.00	39.22	8.54	0.00	67.18	28.06	4.31
7	3.62	27.30	7.02	62.05	100.00	64.13	16.00	0.00	67.18	28.06	4.31
