4	11
time	prcEDUposBRDUneg	prcEDUposBRDUpos	prcEDUnegBRDUpos	prcEDUnegBRDUneg	PostInG1	MiddleInG1	UnstInS	PostInS	percentG0G1	percentS	percentG2M
2	1.15	11.71	2.73	84.40	87.83	1.44	0.23	7.69	90.76	7.76	1.06
3	1.95	5.97	2.14	89.92	96.78	10.02	0.68	3.08	90.76	7.76	1.06
5	1.70	3.98	1.73	92.60	97.37	43.08	2.15	2.65	90.76	7.76	1.06
7	1.58	6.53	2.61	89.28	96.84	75.96	4.20	3.15	90.76	7.76	1.06
