4	11
time	prcEDUposBRDUneg	prcEDUposBRDUpos	prcEDUnegBRDUpos	prcEDUnegBRDUneg	PostInG1	MiddleInG1	UnstInS	PostInS	percentG0G1	percentS	percentG2M
2	2.09	13.68	1.20	16.34	6.52	0.24	nan	2.61	10.05	12.90	5.48
3	3.25	11.73	1.41	15.47	3.57	5.20	11.07	3.78	10.05	12.90	5.48
5	2.88	3.52	2.99	2.97	15.73	11.14	8.70	13.95	10.05	12.90	5.48
7	1.84	6.44	3.69	6.55	10.37	2.00	3.02	10.07	10.05	12.90	5.48
