4	11
time	prcEDUposBRDUneg	prcEDUposBRDUpos	prcEDUnegBRDUpos	prcEDUnegBRDUneg	PostInG1	MiddleInG1	UnstInS	PostInS	percentG0G1	percentS	percentG2M
2	1.07	4.37	1.08	4.41	35.76	0.74	0.15	17.73	9.90	8.95	3.14
3	1.76	4.08	1.28	5.58	4.57	3.59	2.64	4.39	9.90	8.95	3.14
5	0.94	2.66	2.79	3.41	18.05	7.71	6.31	16.97	9.90	8.95	3.14
7	0.55	8.57	1.29	8.81	9.21	3.06	11.13	7.81	9.90	8.95	3.14
