4	11
time	prcEDUposBRDUneg	prcEDUposBRDUpos	prcEDUnegBRDUpos	prcEDUnegBRDUneg	PostInG1	MiddleInG1	UnstInS	PostInS	percentG0G1	percentS	percentG2M
2	1.99	4.32	2.01	5.86	30.41	0.29	0.29	5.42	10.83	10.73	2.51
3	0.80	3.58	2.22	5.94	4.02	5.64	3.84	4.47	10.83	10.73	2.51
5	0.83	4.44	2.18	5.50	24.46	14.05	7.69	25.24	10.83	10.73	2.51
7	0.90	3.26	2.04	3.76	6.08	2.02	15.26	6.60	10.83	10.73	2.51
