4	11
time	prcEDUposBRDUneg	prcEDUposBRDUpos	prcEDUnegBRDUpos	prcEDUnegBRDUneg	PostInG1	MiddleInG1	UnstInS	PostInS	percentG0G1	percentS	percentG2M
2	1.14	4.76	1.37	92.76	82.80	1.17	0.64	5.24	89.95	9.78	0.04
3	1.96	5.20	1.73	91.12	75.64	7.31	0.77	3.07	89.95	9.78	0.04
5	2.32	4.05	2.01	91.63	94.45	43.70	1.10	5.04	89.95	9.78	0.04
7	3.23	6.39	2.74	87.64	65.53	77.00	2.26	33.43	89.95	9.78	0.04
