4	8
time	prcEDUposBRDUpos	prcEDUnegBRDUpos	prcEDUposBRDUneg	prcEDUnegBRDUneg	percentG0G1	percentS	percentG2M	MiddleInG1
2	8.70	0.48	1.87	7.30	6.78	15.57	13.26	2.09
3	7.58	1.24	1.57	8.43	6.78	15.57	13.26	2.52
5	14.99	4.02	1.64	12.06	6.78	15.57	13.26	8.28
7	10.89	3.15	1.57	10.76	6.78	15.57	13.26	16.48
