4	8
time	prcEDUposBRDUpos	prcEDUnegBRDUpos	prcEDUposBRDUneg	prcEDUnegBRDUneg	percentG0G1	percentS	percentG2M	MiddleInG1
2	1.70	0.44	0.47	2.59	2.34	2.22	0.16	3.15
3	1.09	0.45	0.95	2.26	2.34	2.22	0.16	2.05
5	2.11	0.84	0.38	3.31	2.34	2.22	0.16	13.46
7	1.55	0.43	0.23	2.05	2.34	2.22	0.16	13.81
