4	8
time	prcEDUposBRDUpos	prcEDUnegBRDUpos	prcEDUposBRDUneg	prcEDUnegBRDUneg	percentG0G1	percentS	percentG2M	MiddleInG1
2	25.15	11.08	5.04	58.74	49.01	48.14	2.75	10.45
3	25.10	14.03	5.22	55.66	49.01	48.14	2.75	13.55
5	26.25	15.18	4.19	54.39	49.01	48.14	2.75	46.40
7	30.73	9.30	4.88	55.10	49.01	48.14	2.75	70.05
