4	8
time	prcEDUposBRDUpos	prcEDUnegBRDUpos	prcEDUposBRDUneg	prcEDUnegBRDUneg	percentG0G1	percentS	percentG2M	MiddleInG1
2	10.54	2.15	1.44	14.12	10.59	10.48	2.33	3.19
3	6.15	2.31	0.98	8.93	10.59	10.48	2.33	1.20
5	3.03	2.44	1.30	5.24	10.59	10.48	2.33	5.36
7	2.44	3.10	0.75	4.32	10.59	10.48	2.33	3.92
