4	13
time	prcEDUposBRDUneg	prcEDUposBRDUpos	prcEDUnegBRDUpos	prcEDUnegBRDUneg	PostInG1	MiddleInG1	percentG0G1	percentS	percentG2M	AvgDNAMiddle	AvgDNAPre	UnstInS	PostInS
2	2.42	11.99	0.66	11.51	nan	0.40	8.46	8.67	6.15	0.00	0.02	nan	7.40
3	2.53	12.44	1.38	11.36	2.08	4.69	8.46	8.67	6.15	0.03	0.03	0.98	1.60
5	1.24	3.57	1.97	4.45	3.18	8.34	8.46	8.67	6.15	0.07	0.09	0.25	2.63
7	1.59	2.35	3.29	6.58	1.91	6.48	8.46	8.67	6.15	0.02	0.02	3.75	33.22
