4	13
time	prcEDUposBRDUneg	prcEDUposBRDUpos	prcEDUnegBRDUpos	prcEDUnegBRDUneg	PostInG1	MiddleInG1	percentG0G1	percentS	percentG2M	AvgDNAMiddle	AvgDNAPre	UnstInS	PostInS
2	0.50	2.90	0.30	2.82	11.64	0.47	2.37	1.89	1.19	0.03	0.02	0.16	6.89
3	0.44	1.67	0.89	2.36	3.19	3.76	2.37	1.89	1.19	0.03	0.04	0.28	3.17
5	0.23	1.06	0.76	1.83	2.31	6.56	2.37	1.89	1.19	0.03	0.01	0.60	2.32
7	0.72	2.52	2.13	4.41	2.99	10.36	2.37	1.89	1.19	0.03	0.05	1.51	2.98
