4	13												
time	prcEDUposBRDUneg	prcEDUposBRDUpos	prcEDUnegBRDUpos	prcEDUnegBRDUneg	PostInG1	MiddleInG1	percentG0G1	percentS	percentG2M	AvgDNAMiddle	AvgDNAPre	UnstInS	PostInS
2	4.17	28.20	5.69	61.90	73.83	0.83	65.78	30.26	3.18	0.54	0.08	1.13	7.10
3	5.86	26.94	6.48	60.70	93.14	18.46	65.78	30.26	3.18	0.63	0.20	9.98	5.90
5	5.01	25.30	6.31	63.36	73.52	54.94	65.78	30.26	3.18	0.83	0.59	18.54	24.43
7	6.49	26.58	4.92	62.00	39.25	84.33	65.78	30.26	3.18	nan	nan	23.91	59.05
