28	10
21007.12059	10000	5.87814	15.1648	1.48186	0.4471	0	0	0	0	0.0275937	1.5	224.652	0.01	0	1	0.75	0	0.75	200	0.1	4	0.00185	1	1	1	20	1	1
21007.09773	10000	6.03967	14.3086	1.14959	0.227687	0	0	0	0	0.0146781	1.5	236.111	0.01	0	1	0.75	0	0.75	200	0.1	4	0.00185	1	1	1	20	1	1
21007.21348	10000	6.76062	13.3247	1.05194	1.25365	0	0	0	0	0.032963	1.5	235.517	0.01	0	1	0.75	0	0.75	200	0.1	4	0.00185	1	1	1	20	1	1
21007.12034	10000	7.04241	13.9917	1.47425	0.703677	0	0	0	0	0.0146252	1.5	223.72	0.01	0	1	0.75	0	0.75	200	0.1	4	0.00185	1	1	1	20	1	1
21007.1705599999	10000	6.10105	13.8332	1.33596	0.221226	0	0	0	0	0.0394582	1.5	238.607	0.01	0	1	0.75	0	0.75	200	0.1	4	0.00185	1	1	1	20	1	1
21007.10542	10000	6.39869	14.6511	1.44237	0.452411	0	0	0	0	0.0298331	1.5	224.934	0.01	0	1	0.75	0	0.75	200	0.1	4	0.00185	1	1	1	20	1	1
21006.94976	10000	6.88616	13.6956	1.29704	0.110137	0	0	0	0	0.0122345	1.5	232.685	0.01	0	1	0.75	0	0.75	200	0.1	4	0.00185	1	1	1	20	1	1
21007.14989	10000	5.85208	14.3619	1.44513	0.10735	0	0	0	0	0.026165	1.5	235.007	0.01	0	1	0.75	0	0.75	200	0.1	4	0.00185	1	1	1	20	1	1
21007.1298	10000	5.92078	13.095	1.19013	1.76236	0	0	0	0	0.0303709	1.5	244.527	0.01	0	1	0.75	0	0.75	200	0.1	4	0.00185	1	1	1	20	1	1
21007.02624	10000	6.90064	14.7522	1.20435	0.176858	0	0	0	0	0.0169603	1.5	222.648	0.01	0	1	0.75	0	0.75	200	0.1	4	0.00185	1	1	1	20	1	1
