28	10
1202.90246	10000	8.31974	6.83392	0.217225	2.41495	0	0	0	0	0.749881	1.5	312.159	0.01	0	1	0.75	0	0.75	200	0.1	4	0.00185	1	1	1	20	1	1
1202.77493	10000	6.33138	7.11842	0.212788	0.149929	0	0	0	0	0.78736	1.5	368.687	0.01	0	1	0.75	0	0.75	200	0.1	4	0.00185	1	1	1	20	1	1
1202.8975	10000	23.7526	7.95737	0.272367	0.420049	0	0	0	0	0.574695	1.5	160.097	0.01	0	1	0.75	0	0.75	200	0.1	4	0.00185	1	1	1	20	1	1
1202.96051	10000	6.52428	7.26252	0.22656	0.470959	0	0	0	0	0.764225	1.5	355.927	0.01	0	1	0.75	0	0.75	200	0.1	4	0.00185	1	1	1	20	1	1
1202.76233	10000	8.24181	7.34051	0.227925	1.56264	0	0	0	0	0.769775	1.5	308.394	0.01	0	1	0.75	0	0.75	200	0.1	4	0.00185	1	1	1	20	1	1
1203.07913	10000	17.0063	7.29093	0.24832	9.31896	0	0	0	0	0.684577	1.5	191.251	0.01	0	1	0.75	0	0.75	200	0.1	4	0.00185	1	1	1	20	1	1
1202.68932	10000	13.5434	6.98628	0.217775	0.164954	0	0	0	0	0.674877	1.5	244.764	0.01	0	1	0.75	0	0.75	200	0.1	4	0.00185	1	1	1	20	1	1
1202.63223	10000	22.2579	6.93232	0.230104	0.332782	0	0	0	0	0.566207	1.5	173.761	0.01	0	1	0.75	0	0.75	200	0.1	4	0.00185	1	1	1	20	1	1
1202.82475	10000	12.8415	7.06057	0.253626	1.95332	0	0	0	0	0.727824	1.5	242.733	0.01	0	1	0.75	0	0.75	200	0.1	4	0.00185	1	1	1	20	1	1
1202.79994	10000	20.6737	6.771	0.20776	1.31284	0	0	0	0	0.586891	1.5	181.578	0.01	0	1	0.75	0	0.75	200	0.1	4	0.00185	1	1	1	20	1	1
