28	10
21400.714133	10000	5.45949	7.4752	0.794149	3.03861	0	0	0	0	0.0055	2	240.262	0.01	0	1	0.75	0	0.75	200	0.1	4	0.00417	1	1	1	20	1	1
21400.675433	10000	5.61049	6.96288	0.784959	4.68249	0	0	0	0	0.0055	2	248.699	0.01	0	1	0.75	0	0.75	200	0.1	4	0.00417	1	1	1	20	1	1
21400.697512	10000	5.57262	6.62239	0.694176	7.41291	0	0	0	0	0.0055	2	268.749	0.01	0	1	0.75	0	0.75	200	0.1	4	0.00417	1	1	1	20	1	1
21400.681493	10000	5.13422	7.44889	0.887644	2.45461	0	0	0	0	0.0055	2	245.248	0.01	0	1	0.75	0	0.75	200	0.1	4	0.00417	1	1	1	20	1	1
21400.681344	10000	6.23132	7.71631	0.819785	4.27377	0	0	0	0	0.0055	2	224.107	0.01	0	1	0.75	0	0.75	200	0.1	4	0.00417	1	1	1	20	1	1
21400.681726	10000	6.33521	7.04729	0.730942	6.58273	0	0	0	0	0.0055	2	239.273	0.01	0	1	0.75	0	0.75	200	0.1	4	0.00417	1	1	1	20	1	1
21400.680138	10000	5.60838	7.22473	0.814962	4.57219	0	0	0	0	0.0055	2	243.548	0.01	0	1	0.75	0	0.75	200	0.1	4	0.00417	1	1	1	20	1	1
21400.652203	10000	6.15648	7.13453	0.754618	5.66399	0	0	0	0	0.0055	2	238.105	0.01	0	1	0.75	0	0.75	200	0.1	4	0.00417	1	1	1	20	1	1
21400.678973	10000	5.2646	7.47314	0.803837	2.32535	0	0	0	0	0.0055	2	243.986	0.01	0	1	0.75	0	0.75	200	0.1	4	0.00417	1	1	1	20	1	1
21400.711104	10000	5.12325	7.43431	0.842432	2.44806	0	0	0	0	0.0055	2	246.456	0.01	0	1	0.75	0	0.75	200	0.1	4	0.00417	1	1	1	20	1	1
