28	10
21300.48877	10000	5.78267	5.87241	0.529589	6.26663	0	0	0	0	0.015753	2	276.371	0.01	0	1	0.75	0	0.75	200	0.1	4	0.00417	1	1	1	20	1	1
21300.568529	10000	3.88654	6.25182	0.553855	0.810847	0	0	0	0	0.0624293	2	311.932	0.01	0	1	0.75	0	0.75	200	0.1	4	0.00417	1	1	1	20	1	1
21300.574748	10000	5.44317	6.50964	0.645285	3.54991	0	0	0	0	0.0350645	2	260.345	0.01	0	1	0.75	0	0.75	200	0.1	4	0.00417	1	1	1	20	1	1
21300.497479	10000	5.75269	5.55811	0.553107	6.26568	0	0	0	0	0.0108429	2	283.589	0.01	0	1	0.75	0	0.75	200	0.1	4	0.00417	1	1	1	20	1	1
21300.611326	10000	3.84085	6.11597	0.545655	2.46169	0	0	0	0	0.0643984	2	312.656	0.01	0	1	0.75	0	0.75	200	0.1	4	0.00417	1	1	1	20	1	1
21300.558122	10000	6.5104	5.68035	0.490585	9.45511	0	0	0	0	0.0268511	2	277.13	0.01	0	1	0.75	0	0.75	200	0.1	4	0.00417	1	1	1	20	1	1
21300.471642	10000	5.84594	6.2611	0.585546	5.52123	0	0	0	0	0.0366435	2	262.484	0.01	0	1	0.75	0	0.75	200	0.1	4	0.00417	1	1	1	20	1	1
21300.49133	10000	5.24189	5.6056	0.472192	5.45651	0	0	0	0	0.033106	2	295.667	0.01	0	1	0.75	0	0.75	200	0.1	4	0.00417	1	1	1	20	1	1
21300.5226	10000	4.67143	6.39962	0.526445	1.95563	0	0	0	0	0.0300855	2	282.949	0.01	0	1	0.75	0	0.75	200	0.1	4	0.00417	1	1	1	20	1	1
