28	10
22200.616505	10000	10.2074	7.69903	0.298789	8.25865	0	0	0	0	0.057	1.5	269.756	0.01	0	1	0.75	0	0.75	200	0.1	4	0.00417	1	1	1	20	1	1
22200.758728	10000	9.10881	8.16226	0.317956	2.31685	0	0	0	0	0.057	1.5	281.329	0.01	0	1	0.75	0	0.75	200	0.1	4	0.00417	1	1	1	20	1	1
22200.762394	10000	10.9486	7.6674	0.275946	8.13303	0	0	0	0	0.057	1.5	258.577	0.01	0	1	0.75	0	0.75	200	0.1	4	0.00417	1	1	1	20	1	1
22200.735474	10000	10.7248	7.84335	0.317845	5.72839	0	0	0	0	0.057	1.5	257.021	0.01	0	1	0.75	0	0.75	200	0.1	4	0.00417	1	1	1	20	1	1
22200.812253	10000	9.71475	8.1088	0.356594	0.716246	0	0	0	0	0.057	1.5	280.863	0.01	0	1	0.75	0	0.75	200	0.1	4	0.00417	1	1	1	20	1	1
22200.760917	10000	9.79666	7.95993	0.296204	6.53275	0	0	0	0	0.057	1.5	270.005	0.01	0	1	0.75	0	0.75	200	0.1	4	0.00417	1	1	1	20	1	1
22200.769758	10000	8.52045	7.60717	0.279321	5.07028	0	0	0	0	0.057	1.5	296.061	0.01	0	1	0.75	0	0.75	200	0.1	4	0.00417	1	1	1	20	1	1
22200.768581	10000	8.30517	8.08001	0.329831	0.354468	0	0	0	0	0.057	1.5	306.903	0.01	0	1	0.75	0	0.75	200	0.1	4	0.00417	1	1	1	20	1	1
22200.817047	10000	9.02226	8.15774	0.286528	0.286246	0	0	0	0	0.057	1.5	294.814	0.01	0	1	0.75	0	0.75	200	0.1	4	0.00417	1	1	1	20	1	1
22200.740381	10000	9.21382	8.03984	0.350238	3.10726	0	0	0	0	0.057	1.5	278.546	0.01	0	1	0.75	0	0.75	200	0.1	4	0.00417	1	1	1	20	1	1
