28	10
2107.84283	10000	17.832	6.81527	0.409792	0.582006	0	0	0	0	0.829095	1.5	208.317	0.01	0	1	0.75	0	0.75	200	0.1	4	0.00417	1	1	1	20	1	1
2108.01957	10000	12.9378	7.07072	0.453797	0.227146	0	0	0	0	0.875201	1.5	253.913	0.01	0	1	0.75	0	0.75	200	0.1	4	0.00417	1	1	1	20	1	1
2107.94046	10000	8.05278	7.41137	0.416234	0.596732	0	0	0	0	0.909905	1.5	320.174	0.01	0	1	0.75	0	0.75	200	0.1	4	0.00417	1	1	1	20	1	1
2107.77167	10000	16.3709	7.85052	0.481699	1.59046	0	0	0	0	0.872377	1.5	207.584	0.01	0	1	0.75	0	0.75	200	0.1	4	0.00417	1	1	1	20	1	1
2107.85336	10000	18.3964	6.92578	0.376422	0.874854	0	0	0	0	0.843259	1.5	202.451	0.01	0	1	0.75	0	0.75	200	0.1	4	0.00417	1	1	1	20	1	1
2107.91492	10000	21.2042	6.77002	0.49309	2.58161	0	0	0	0	0.800804	1.5	179.871	0.01	0	1	0.75	0	0.75	200	0.1	4	0.00417	1	1	1	20	1	1
2107.78609	10000	14.6859	7.29341	0.404846	0.233273	0	0	0	0	0.859902	1.5	233.167	0.01	0	1	0.75	0	0.75	200	0.1	4	0.00417	1	1	1	20	1	1
2108.04069	10000	16.6658	7.42312	0.375351	0.352696	0	0	0	0	0.860245	1.5	213.93	0.01	0	1	0.75	0	0.75	200	0.1	4	0.00417	1	1	1	20	1	1
2107.93551	10000	10.3712	7.12333	0.403788	0.294083	0	0	0	0	0.889105	1.5	287.961	0.01	0	1	0.75	0	0.75	200	0.1	4	0.00417	1	1	1	20	1	1
2107.96897	10000	17.6047	6.64251	0.462341	0.329637	0	0	0	0	0.859087	1.5	212.024	0.01	0	1	0.75	0	0.75	200	0.1	4	0.00417	1	1	1	20	1	1
