4	11
time	prcEDUposBRDUneg	prcEDUposBRDUpos	prcEDUnegBRDUpos	prcEDUnegBRDUneg	percentG0	percentG0G1	percentS	percentG2M	percentM	PostInG1	MiddleInG1
2	0.59	4.22	0.79	94.40	6.54	93.92	2.68	0.03	2.50	nan	nan
3	0.77	3.63	0.81	94.78	6.54	93.92	2.68	0.03	2.50	nan	nan
5	0.67	6.01	1.04	92.30	6.54	93.92	2.68	0.03	2.50	nan	nan
7	0.35	5.01	1.67	93.00	6.54	93.92	2.68	0.03	2.50	98.53	86.58
